<?xml version="1.0" encoding="UTF-8"?>
<svg xmlns="http://www.w3.org/2000/svg" xmlns:xlink="http://www.w3.org/1999/xlink" width="152pt" height="150pt" viewBox="0 0 152 150" version="1.1">
<g id="surface1">
<path style=" stroke:none;fill-rule:nonzero;fill:rgb(87.058824%,29.411765%,21.960784%);fill-opacity:1;" d="M 77 145.792969 C 37.347656 145.792969 5.105469 113.75 5.105469 74.097656 C 5.105469 34.445312 37.347656 2.203125 77 2.203125 C 116.652344 2.203125 148.898438 34.445312 148.898438 74.097656 C 148.695312 113.75 116.652344 145.792969 77 145.792969 Z M 77 145.792969 "/>
<path style=" stroke:none;fill-rule:nonzero;fill:rgb(100%,100%,100%);fill-opacity:1;" d="M 85.8125 72.097656 L 56.976562 72.097656 L 56.976562 80.507812 L 76.601562 80.507812 C 74.199219 90.722656 67.1875 96.929688 57.574219 96.929688 C 44.957031 96.929688 34.746094 86.714844 34.746094 74.097656 C 34.746094 61.480469 44.957031 51.269531 57.574219 51.269531 C 63.582031 51.269531 68.992188 53.671875 72.996094 57.277344 L 79.40625 51.667969 C 73.796875 46.0625 65.988281 42.65625 57.574219 42.65625 C 40.351562 42.65625 26.332031 56.675781 26.332031 73.898438 C 26.332031 91.121094 40.351562 105.140625 57.574219 105.140625 C 74.199219 105.140625 86.011719 92.523438 86.011719 75.300781 Z M 85.8125 72.097656 "/>
<path style=" stroke:none;fill-rule:nonzero;fill:rgb(100%,100%,100%);fill-opacity:1;" d="M 127.667969 72.496094 L 115.652344 72.496094 L 115.652344 60.480469 L 108.042969 60.480469 L 108.042969 72.496094 L 96.027344 72.496094 L 96.027344 80.105469 L 108.042969 80.105469 L 108.042969 92.121094 L 115.652344 92.121094 L 115.652344 80.105469 L 127.667969 80.105469 Z M 127.667969 72.496094 "/>
</g>
</svg>
