{
 "getUserMedia": [],
 "PeerConnections": {
  "10000-1": {
   "constraints": "",
   "rtcConfiguration": "{ iceServers: [stun:videocall.quackquack.in:5349, turns:videocall.quackquack.in:3478], iceTransportPolicy: all, bundlePolicy: balanced, rtcpMuxPolicy: require, iceCandidatePoolSize: 0, sdpSemantics: \"unified-plan\" }",
   "stats": {
    "googLibjingleSession_6778437314725774507-googInitiator": {
     "startTime": "2021-02-17T09:50:30.910Z",
     "endTime": "2021-02-17T09:50:47.905Z",
     "values": "[false,false,false,false,false,false,false,false,false,false,false,false,false,false,false,false,false,false]"
    },
    "bweforvideo-googActualEncBitrate": {
     "startTime": "2021-02-17T09:50:30.910Z",
     "endTime": "2021-02-17T09:50:47.905Z",
     "values": "[0,0,0,0,0,0,0,0,0,0,0,0,0,0,0,0,0,0]"
    },
    "bweforvideo-googAvailableReceiveBandwidth": {
     "startTime": "2021-02-17T09:50:30.910Z",
     "endTime": "2021-02-17T09:50:47.905Z",
     "values": "[0,0,0,0,0,0,0,0,0,0,0,0,0,0,0,0,0,0]"
    },
    "bweforvideo-googAvailableSendBandwidth": {
     "startTime": "2021-02-17T09:50:30.910Z",
     "endTime": "2021-02-17T09:50:47.905Z",
     "values": "[0,0,0,0,0,0,0,0,0,0,0,0,0,0,0,0,0,0]"
    },
    "bweforvideo-googBucketDelay": {
     "startTime": "2021-02-17T09:50:30.910Z",
     "endTime": "2021-02-17T09:50:47.905Z",
     "values": "[0,0,0,0,0,0,0,0,0,0,0,0,0,0,0,0,0,0]"
    },
    "bweforvideo-googRetransmitBitrate": {
     "startTime": "2021-02-17T09:50:30.910Z",
     "endTime": "2021-02-17T09:50:47.905Z",
     "values": "[0,0,0,0,0,0,0,0,0,0,0,0,0,0,0,0,0,0]"
    },
    "bweforvideo-googTargetEncBitrate": {
     "startTime": "2021-02-17T09:50:30.910Z",
     "endTime": "2021-02-17T09:50:47.905Z",
     "values": "[0,0,0,0,0,0,0,0,0,0,0,0,0,0,0,0,0,0]"
    },
    "bweforvideo-googTargetEncBitrateCorrected": {
     "startTime": "2021-02-17T09:50:30.910Z",
     "endTime": "2021-02-17T09:50:47.905Z",
     "values": "[0,0,0,0,0,0,0,0,0,0,0,0,0,0,0,0,0,0]"
    },
    "bweforvideo-googTransmitBitrate": {
     "startTime": "2021-02-17T09:50:30.910Z",
     "endTime": "2021-02-17T09:50:47.905Z",
     "values": "[0,0,0,0,0,0,0,0,0,0,0,0,0,0,0,0,0,0]"
    }
   },
   "updateLog": [],
   "url": "https://videocall.quackquack.in/index.html"
  }
 },
 "UserAgent": "Mozilla/5.0 (Windows NT 10.0; Win64; x64) AppleWebKit/537.36 (KHTML, like Gecko) Chrome/88.0.4324.182 Safari/537.36"
}